STT 3851: CH 3 and 4 Exam
…
set.seed(1)
train <- sample(45,30, replace = FALSE)
train

##  [1] 12 17 25 39  9 36 37 26 24  3  8  7 23 13 42 15 21 28 11 29 31  6 30 40 43
## [26] 35  1 34 33 38

traindata <- donner[train,]
traindata

## # A tibble: 30 x 5
##    Name            Multifam   Sex   Age Survived
##    <chr>              <dbl> <dbl> <dbl>    <dbl>
##  1 Eddy William           1     0    28        1
##  2 Foster William         1     0    28        1
##  3 Herron William         0     0    25        1
##  4 Smith James            0     0    25        0
##  5 Donner Jacob           1     0    65        0
##  6 Reed Margaret          1     1    32        1
##  7 Reinhardt Josep        0     0    30        0
##  8 Noah James             0     0    20        1
##  9 Hardkoop Mr            0     0    60        0
## 10 Breen Patrick          1     0    40        1
## #  with 20 more rows
…
